This is BibTeX, Version 0.99d (TeX Live 2014)
Capacity: max_strings=35307, hash_size=35307, hash_prime=30011
The top-level auxiliary file: main.aux
The style file: abbrv.bst
Database file #1: main.bib
Warning--can't use both volume and number fields in lorensen1987marching
You've used 9 entries,
            2118 wiz_defined-function locations,
            552 strings with 5473 characters,
and the built_in function-call counts, 3627 in all, are:
= -- 351
> -- 192
< -- 5
+ -- 76
- -- 65
* -- 245
:= -- 581
add.period$ -- 30
call.type$ -- 9
change.case$ -- 55
chr.to.int$ -- 0
cite$ -- 10
duplicate$ -- 142
empty$ -- 279
format.name$ -- 65
if$ -- 783
int.to.chr$ -- 0
int.to.str$ -- 9
missing$ -- 9
newline$ -- 47
num.names$ -- 20
pop$ -- 76
preamble$ -- 1
purify$ -- 47
quote$ -- 0
skip$ -- 106
stack$ -- 0
substring$ -- 193
swap$ -- 48
text.length$ -- 5
text.prefix$ -- 0
top$ -- 0
type$ -- 34
warning$ -- 1
while$ -- 33
width$ -- 10
write$ -- 100
(There was 1 warning)
